<?xml version="1.0" encoding="utf-8"?>
<!-- Generator: Adobe Illustrator 16.0.3, SVG Export Plug-In . SVG Version: 6.00 Build 0)  -->
<!DOCTYPE svg PUBLIC "-//W3C//DTD SVG 1.1//EN" "http://www.w3.org/Graphics/SVG/1.1/DTD/svg11.dtd">
<svg version="1.1" id="Capa_1" xmlns="http://www.w3.org/2000/svg" xmlns:xlink="http://www.w3.org/1999/xlink" x="0px" y="0px"
	 width="612px" height="792px" viewBox="0 0 612 792" enable-background="new 0 0 612 792" xml:space="preserve">
<path fill="#FFFFFF" d="M611.339,318.268l-25.156-158.321c-3.607-22.714-21.419-40.525-44.134-44.131L383.73,90.658
	c-16.808-2.671-33.878,2.876-45.903,14.901L15.563,427.824c-20.75,20.751-20.75,54.385,0,75.136l183.479,183.478
	c20.749,20.749,54.382,20.749,75.134-0.003l322.264-322.264C608.465,352.144,614.012,335.074,611.339,318.268z M260.382,645.318
	c-8.107,8.107-21.258,8.107-29.368,0L56.682,470.985c-8.107-8.109-8.107-21.26,0-29.369c8.104-8.104,21.258-8.107,29.368,0
	l174.333,174.335C268.49,624.059,268.486,637.211,260.382,645.318z M494.906,263.677c-15.627,15.626-40.961,15.625-56.583,0
	c-15.626-15.627-15.629-40.957,0-56.583c15.623-15.626,40.955-15.626,56.583,0C510.529,222.719,510.529,248.052,494.906,263.677z"/>
</svg>
